<?xml version="1.0" encoding="utf-8"?>
<!-- Generator: Adobe Illustrator 18.0.0, SVG Export Plug-In . SVG Version: 6.00 Build 0)  -->
<!DOCTYPE svg PUBLIC "-//W3C//DTD SVG 1.1//EN" "http://www.w3.org/Graphics/SVG/1.1/DTD/svg11.dtd">
<svg version="1.1" id="Layer_1" xmlns="http://www.w3.org/2000/svg" xmlns:xlink="http://www.w3.org/1999/xlink" x="0px" y="0px"
	 viewBox="0 0 1923.1 1923.1" enable-background="new 0 0 1923.1 1923.1" xml:space="preserve">
<g>
	<path d="M1762.9,180.3h-260.5V60.1c0-33.2-26.9-60.1-60.1-60.1c-33.2,0-60.1,26.9-60.1,60.1v120.2h-360.6V60.1
		c0-33.2-26.9-60.1-60.1-60.1s-60.1,26.9-60.1,60.1v120.2H540.9V60.1c0-33.2-26.9-60.1-60.1-60.1s-60.1,26.9-60.1,60.1v120.2H160.3
		C71.8,180.3,0,252,0,340.5v1422.3c0,88.5,71.8,160.2,160.3,160.2h1602.6c88.5,0,160.2-71.7,160.2-160.2V340.5
		C1923.1,252,1851.4,180.3,1762.9,180.3z M1802.9,1762.8c0,22.1-18,40.1-40,40.1H160.3c-22.1,0-40.1-18-40.1-40.1V340.5
		c0-22.1,18-40,40.1-40h260.4v120.2c0,33.2,26.9,60.1,60.1,60.1s60.1-26.9,60.1-60.1V300.5h360.6v120.2c0,33.2,26.9,60.1,60.1,60.1
		s60.1-26.9,60.1-60.1V300.5h360.6v120.2c0,33.2,26.9,60.1,60.1,60.1c33.2,0,60.1-26.9,60.1-60.1V300.5h260.5c22.1,0,40,17.9,40,40
		V1762.8z"/>
	<rect x="420.7" y="721.2" width="240.4" height="180.3"/>
	<rect x="420.7" y="1021.6" width="240.4" height="180.3"/>
	<rect x="420.7" y="1322.1" width="240.4" height="180.2"/>
	<rect x="841.4" y="1322.1" width="240.4" height="180.2"/>
	<rect x="841.4" y="1021.6" width="240.4" height="180.3"/>
	<rect x="841.4" y="721.2" width="240.4" height="180.3"/>
	<rect x="1262.1" y="1322.1" width="240.4" height="180.2"/>
	<rect x="1262.1" y="1021.6" width="240.4" height="180.3"/>
	<rect x="1262.1" y="721.2" width="240.4" height="180.3"/>
</g>
</svg>
