<svg version="1.1" id="Layer_1" xmlns="http://www.w3.org/2000/svg" xmlns:xlink="http://www.w3.org/1999/xlink" x="0px" y="0px"
	 viewBox="0 0 512 512" style="enable-background:new 0 0 512 512;" xml:space="preserve">
<g>
	<g>
		<g>
			<path d="M501.333,298.667H10.667C4.771,298.667,0,303.438,0,309.333v21.333c0,5.896,4.771,10.667,10.667,10.667h490.667
				c5.896,0,10.667-4.771,10.667-10.667v-21.333C512,303.438,507.229,298.667,501.333,298.667z"/>
			<path d="M501.333,192h-192c-5.896,0-10.667,4.771-10.667,10.667V224c0,5.896,4.771,10.667,10.667,10.667h192
				c5.896,0,10.667-4.771,10.667-10.667v-21.333C512,196.771,507.229,192,501.333,192z"/>
			<path d="M501.333,85.333h-192c-5.896,0-10.667,4.771-10.667,10.667v21.333c0,5.896,4.771,10.667,10.667,10.667h192
				c5.896,0,10.667-4.771,10.667-10.667V96C512,90.104,507.229,85.333,501.333,85.333z"/>
			<path d="M330.667,405.333h-320C4.771,405.333,0,410.104,0,416v21.333C0,443.229,4.771,448,10.667,448h320
				c5.896,0,10.667-4.771,10.667-10.667V416C341.333,410.104,336.563,405.333,330.667,405.333z"/>
			<path d="M10.667,256h74.667h160c5.896,0,10.667-4.771,10.667-10.667v-32V74.667C256,68.771,251.229,64,245.333,64H10.667
				C4.771,64,0,68.771,0,74.667v170.667C0,251.229,4.771,256,10.667,256z M21.333,85.333h213.333v102.25l-56.458-56.458
				c-4.167-4.167-10.917-4.167-15.083,0l-33.833,33.833c-4.167,4.167-4.167,10.917,0,15.083l10.667,10.667
				c2.01,2.021,3.125,4.698,3.125,7.542s-1.115,5.521-3.125,7.542c-4.042,4.021-11.042,4.021-15.083,0l-10.667-10.667l-32-32
				c-4.167-4.167-10.917-4.167-15.083,0l-45.792,45.792V85.333z"/>
			<circle cx="106.667" cy="128" r="21.333"/>
		</g>
	</g>
</g>

</svg>
