<?xml version="1.0" encoding="iso-8859-1"?>
<!-- Generator: Adobe Illustrator 19.0.0, SVG Export Plug-In . SVG Version: 6.00 Build 0)  -->
<svg version="1.1" id="Layer_1" xmlns="http://www.w3.org/2000/svg" xmlns:xlink="http://www.w3.org/1999/xlink" x="0px" y="0px"
	 viewBox="0 0 512 512" style="enable-background:new 0 0 512 512;" xml:space="preserve">
<g>
	<g>
		<g>
			<path d="M501.333,298.667H10.667C4.771,298.667,0,303.438,0,309.333v21.333c0,5.896,4.771,10.667,10.667,10.667h490.667
				c5.896,0,10.667-4.771,10.667-10.667v-21.333C512,303.438,507.229,298.667,501.333,298.667z"/>
			<path d="M10.667,234.667h192c5.896,0,10.667-4.771,10.667-10.667v-21.333c0-5.896-4.771-10.667-10.667-10.667h-192
				C4.771,192,0,196.771,0,202.667V224C0,229.896,4.771,234.667,10.667,234.667z"/>
			<path d="M10.667,128h192c5.896,0,10.667-4.771,10.667-10.667V96c0-5.896-4.771-10.667-10.667-10.667h-192
				C4.771,85.333,0,90.104,0,96v21.333C0,123.229,4.771,128,10.667,128z"/>
			<path d="M330.667,405.333h-320C4.771,405.333,0,410.104,0,416v21.333C0,443.229,4.771,448,10.667,448h320
				c5.896,0,10.667-4.771,10.667-10.667V416C341.333,410.104,336.563,405.333,330.667,405.333z"/>
			<path d="M501.333,64H266.667C260.771,64,256,68.771,256,74.667v170.667c0,5.896,4.771,10.667,10.667,10.667h74.667h160
				c5.896,0,10.667-4.771,10.667-10.667v-32V74.667C512,68.771,507.229,64,501.333,64z M490.667,187.583l-56.458-56.458
				c-4.167-4.167-10.917-4.167-15.083,0l-33.833,33.833c-4.167,4.167-4.167,10.917,0,15.083l10.667,10.667
				c2.021,2.021,3.125,4.698,3.125,7.542s-1.104,5.521-3.125,7.542c-4.042,4.021-11.042,4.021-15.083,0l-10.667-10.667l-32-32
				c-4.167-4.167-10.917-4.167-15.083,0l-45.792,45.792V85.333h213.333V187.583z"/>
			<circle cx="362.667" cy="128" r="21.333"/>
		</g>
	</g>
</g>
</svg>
